<svg id="Layer_1" data-name="Layer 1" xmlns="http://www.w3.org/2000/svg" xmlns:xlink="http://www.w3.org/1999/xlink" viewBox="0 0 42 42">
  <defs>
    <style>.nostra-cls-1{fill:none;}.nostra-cls-2{clip-path:url(#clip-path);}.nostra-cls-3{fill:ivory;}.nostra-cls-4{fill:#e1e1e1;}.nostra-cls-5{fill:#7fa4d7;}.nostra-cls-6{fill:#fff;}.nostra-cls-7{fill:#808285;}.nostra-cls-8{fill:#f0b973;}.nostra-cls-9{fill:#ffe3c5;}</style>
    <clipPath id="clip-path">
      <circle class="nostra-cls-1" cx="21.06" cy="21.06" r="20.69"/>
    </clipPath>
  </defs>
  <g class="nostra-cls-2">
    <rect class="nostra-cls-3" x="-1.04" y="0.19" width="44" height="42.15"/>
    <rect class="nostra-cls-4" x="6.7" y="18.25" width="2.27" height="1.09" transform="translate(-3.74 2.04) rotate(-12)"/>
    <rect class="nostra-cls-4" x="7.08" y="20.05" width="2.27" height="1.09" transform="translate(-4.1 2.16) rotate(-12)"/>
    <rect class="nostra-cls-4" x="10.39" y="17.47" width="2.27" height="1.09" transform="translate(-3.49 2.79) rotate(-12)"/>
    <rect class="nostra-cls-4" x="9.22" y="17.86" width="0.9" height="1.09" transform="translate(-3.62 2.41) rotate(-12)"/>
    <rect class="nostra-cls-4" x="9.6" y="19.66" width="0.9" height="1.09" transform="translate(-3.98 2.53) rotate(-12)"/>
    <rect class="nostra-cls-4" x="7.46" y="21.61" width="2.27" height="1.09" transform="translate(-4.42 2.27) rotate(-12)"/>
    <rect class="nostra-cls-4" x="9.98" y="21.22" width="0.9" height="1.09" transform="translate(-4.3 2.64) rotate(-12)"/>
    <rect class="nostra-cls-5" x="-8.63" y="11.23" width="28.26" height="1.2" transform="translate(-7.53 11.24) rotate(-62.42)"/>
    <polygon class="nostra-cls-6" points="10.04 -0.2 9.4 -0.54 4.29 9.36 1.86 11.44 -1.2 11.91 -1.09 12.62 2.17 12.12 4.87 9.82 10.04 -0.2"/>
    <path class="nostra-cls-7" d="M-1.12,12.67l-.12-.79,3.08-.47L4.26,9.33,9.38-.59l.71.37L4.9,9.85,2.19,12.16Zm0-.73.1.64,3.21-.49,2.69-2.3L10-.19,9.42-.48,4.33,9.38,1.87,11.48Z"/>
    <path class="nostra-cls-6" d="M-1.13,5.39l2.3-.47L1.6,7.14A.36.36,0,0,0,2,7.43H2A.36.36,0,0,0,2.31,7L1.89,4.77l2.55-.52.32,1.92a.36.36,0,0,0,.36.3h.06A.36.36,0,0,0,5.47,6L5.15,4.1l1.54-.32a.36.36,0,1,0-.15-.71L5,3.39,4.73,1.6,7.86,1A.36.36,0,0,0,7.73.29L4.61.89,4.46,0a.36.36,0,0,0-.71.12L3.9,1l-5.48,1a.36.36,0,0,0-.29.42.36.36,0,0,0,.35.29h.07L4,1.73l.3,1.8L-1.27,4.68a.36.36,0,0,0-.28.43.36.36,0,0,0,.35.29Z"/>
    <path class="nostra-cls-7" d="M2,7.47a.4.4,0,0,1-.39-.33L1.15,5l-2.26.47H-1.2a.4.4,0,0,1-.39-.32.4.4,0,0,1,.06-.3.4.4,0,0,1,.25-.17L4.27,3.5,4,1.78l-5.43,1h-.08a.4.4,0,0,1-.39-.33A.4.4,0,0,1-1.59,2L3.85,1,3.7.13a.4.4,0,0,1,.07-.3A.4.4,0,0,1,4-.34a.4.4,0,0,1,.3.07A.4.4,0,0,1,4.5,0l.14.85L7.72.25A.4.4,0,0,1,7.87,1l-3.1.59.29,1.71L6.54,3a.4.4,0,1,1,.16.79l-1.5.31L5.51,6a.4.4,0,0,1-.33.46H5.12a.4.4,0,0,1-.4-.33L4.41,4.3,1.93,4.8,2.35,7A.4.4,0,0,1,2,7.47Zm-.75-2.6.43,2.26A.32.32,0,0,0,2,7.39.32.32,0,0,0,2.28,7L1.84,4.74,4.47,4.2l.33,2a.32.32,0,1,0,.63-.11l-.33-2,1.58-.32a.32.32,0,0,0-.13-.63L5,3.44,4.68,1.57,7.85,1A.32.32,0,0,0,7.73.33L4.57.93,4.42,0A.32.32,0,0,0,4.29-.2.32.32,0,0,0,4-.26a.32.32,0,0,0-.21.13.32.32,0,0,0-.06.24l.16.94-5.52,1a.32.32,0,0,0-.26.38.32.32,0,0,0,.32.26h.06L4,1.69l.32,1.88L-1.26,4.72a.32.32,0,0,0-.2.14.32.32,0,0,0,0,.24.32.32,0,0,0,.31.26h.07Z"/>
    <path class="nostra-cls-6" d="M7.43,33.51a.28.28,0,0,0,.18-.31L10,29.26l0,0,1.82-5L20.43,7.61,24.18-.16A.36.36,0,0,0,24-.64a.36.36,0,0,0-.48.17L19.87,7.1l-.63-.16L8.56,10.5a.28.28,0,0,0,.09.55h.09L19.26,7.52l.35.09L15.3,16l-.79-.31-.31-1.13,1.42-.31a.28.28,0,1,0-.12-.55L5.65,15.84a.28.28,0,0,0,.06.56h.06l.41-.09.45,1.59,7.62-1.7.79.31-3.82,7.42v0l-1.82,5L7,32.85l-2-.62a.28.28,0,0,0-.16.54l1.93.59L6.12,35.9l-3.67,7a.36.36,0,1,0,.64.33L6.8,36.16ZM7,17.23l-.3-1,6.91-1.5.28,1Z"/>
    <path class="nostra-cls-7" d="M2.76,43.5a.4.4,0,0,1-.36-.59l3.67-7,.6-2.51-1.9-.58A.32.32,0,1,1,5,32.19l2,.61,2.39-3.91,1.81-5v0L15,16.53l-.74-.29-7.64,1.7-.45-1.59-.38.08H5.71a.32.32,0,0,1-.07-.64l9.85-2.14a.32.32,0,0,1,.14.63l-1.38.3.3,1.07.74.29,4.28-8.31-.29-.07L8.75,11.07l-.1,0a.32.32,0,0,1-.1-.63L19.24,6.9l.61.15L23.49-.49a.4.4,0,0,1,.23-.2.4.4,0,0,1,.31,0,.4.4,0,0,1,.19.54L20.46,7.63,11.91,24.26l-1.82,5,0,0L7.66,33.21a.31.31,0,0,1,0,.13.32.32,0,0,1-.18.2l-.63,2.64L3.12,43.28A.4.4,0,0,1,2.76,43.5ZM4.88,32.26a.24.24,0,0,0-.07.47l2,.6-.62,2.59-3.67,7a.32.32,0,0,0,.14.43A.32.32,0,0,0,3,43.25l3.71-7.1.64-2.66h0a.24.24,0,0,0,.16-.27h0l2.44-4,1.82-5L20.39,7.59,24.14-.18A.32.32,0,0,0,24-.6a.32.32,0,0,0-.25,0,.32.32,0,0,0-.18.16l-3.67,7.6L19.24,7,8.57,10.54a.24.24,0,0,0,.08.47h.08L19.26,7.48l.41.1-4.36,8.47-.84-.33-.33-1.19,1.46-.32a.24.24,0,1,0-.1-.47L5.66,15.88a.24.24,0,0,0-.18.29.24.24,0,0,0,.29.18l.45-.1.45,1.59,7.59-1.69.84.33,0,0L11.25,24l-1.81,5L7,32.89l-2.06-.63ZM7,17.28l-.32-1.13,7-1.52.3,1.09h0Zm-.22-1.07.28,1,6.82-1.52-.26-.94Z"/>
    <path class="nostra-cls-6" d="M20.54,20.88l2.79-8.13L30.46-.62a.48.48,0,0,0-.2-.65.48.48,0,0,0-.65.2L22.55,12.17,23,10.72C25,6.29,27.94-.42,28.31-1a.48.48,0,0,0,0-.58.48.48,0,0,0-.67-.13c-.17.11-.27.18-3,6.21-1.3,2.92-2.59,5.85-2.6,5.88v0L19.39,18.8,14.28,28.86,9.56,36l0,0L6.47,43.2a.48.48,0,1,0,.89.38l3-7.11,4.71-7.11,0,0,4.64-9.13-.13.38v0L18.4,26.1v0l-.8,17.55a.48.48,0,0,0,.46.5h0a.48.48,0,0,0,.48-.46l.8-17.46Z"/>
    <path class="nostra-cls-7" d="M18.07,44.23h0a.52.52,0,0,1-.5-.55l.8-17.55v0l1.19-5.41-4.41,8.68,0,0L10.42,36.5l-3,7.1a.52.52,0,0,1-1-.41L9.5,36l0,0,4.72-7.12,5.11-10.05,2.72-8.41v0c.05-.12,1.32-3,2.6-5.88,2.69-6,2.79-6.1,3-6.22a.52.52,0,0,1,.39-.08.52.52,0,0,1,.33.22.52.52,0,0,1,0,.63C28-.4,25,6.35,23.06,10.74l-.33,1L29.57-1.1a.52.52,0,0,1,.71-.22.52.52,0,0,1,.22.71L23.37,12.77l-2.79,8.12-1.19,5.39-.8,17.46A.52.52,0,0,1,18.07,44.23Zm1.65-24,.07,0-.14.41-1.22,5.52-.8,17.54a.44.44,0,0,0,.88,0l.8-17.46,1.19-5.4,2.79-8.13L30.43-.64a.44.44,0,0,0-.18-.6.44.44,0,0,0-.6.18L22.59,12.19l-.07,0L23,10.71C24.91,6.31,27.91-.44,28.28-1a.45.45,0,0,0,0-.54A.44.44,0,0,0,28-1.77a.44.44,0,0,0-.33.07c-.15.1-.26.17-2.94,6.19-1.28,2.87-2.55,5.76-2.6,5.88v0l-2.72,8.41L14.32,28.87,9.57,36,6.5,43.22a.44.44,0,1,0,.81.35l3-7.11,4.73-7.14Z"/>
    <path class="nostra-cls-6" d="M44.09,5.4a.28.28,0,0,0-.34-.21L35.19,7.28,34,1.07l4.36-.6a.28.28,0,0,0-.08-.56l-5,.68,2.75,14.15-5,.34a.28.28,0,0,0,0,.56h0l3.66-.25.56,4.12,2.74,1.55-3,5.41-6.78-3.6,2.49-4.56a.28.28,0,1,0-.49-.27l-2.49,4.56-5.51-2.93,2.18-6.37L31.58-.06a.48.48,0,0,0-.2-.65.48.48,0,0,0-.65.2L23.59,12.89l0,0-2.82,8.23v0l-1.21,5.49v0l-.8,17.55a.48.48,0,0,0,.46.5h0a.48.48,0,0,0,.48-.46l.37-8.14,7.41,4.05L25.53,43.7A.28.28,0,1,0,26,44L28,40.48l6.62,3.62a.48.48,0,0,0,.46-.85l-6.62-3.62,1.81-3.28,7.58,4a.28.28,0,1,0,.26-.5l-7.57-3.94,2.59-4.68L41,35.41a.28.28,0,1,0,.27-.5l-7.88-4.22,1.72-3.11,8,4.27a.48.48,0,1,0,.45-.85l-8-4.27,3-5.39,4.84,2.74a.28.28,0,1,0,.28-.49l-7.83-4.43-.52-3.81,1.08-.07a.28.28,0,0,0,.22-.13l1.61-.08-.17-1.25,5-1.15a.28.28,0,1,0-.12-.55l-5.55,1.26.15,1.16-1,.05L35.29,7.83l8.59-2.09A.28.28,0,0,0,44.09,5.4ZM20.48,26.83l1.19-5.39L22,20.6l1,.54L21.4,24a.28.28,0,1,0,.49.27l1.59-2.85,3.84,2-1.69,3.1-3.49-1.87a.28.28,0,1,0-.27.5L25.36,27l-2.61,4.78L21.13,31a.28.28,0,0,0-.26.5l1.61.84-1.71,3.14-.67-.37Zm7.45,12.53-6.67-3.64L23,32.58l6.76,3.52ZM30,35.61l-6.76-3.52,2.61-4.78,6.75,3.61Zm2.86-5.18-6.75-3.62,1.69-3.1,6.78,3.6Z"/>
    <path class="nostra-cls-7" d="M19.2,44.8h0a.52.52,0,0,1-.5-.55l.8-17.55v0l1.21-5.49v0l2.82-8.23,0,0L30.7-.53A.52.52,0,0,1,31-.79a.52.52,0,0,1,.4,0,.52.52,0,0,1,.22.71L24.49,13.33l-2.17,6.33,5.44,2.89L30.24,18a.32.32,0,1,1,.56.31l-2.47,4.52L35,26.42l3-5.34-2.72-1.54v0l-.55-4.08-3.62.25a.32.32,0,1,1,0-.64l5-.34L33.27.56l5-.69a.32.32,0,1,1,.09.64L34,1.11l1.19,6.12,8.53-2.08a.32.32,0,0,1,.39.24h0a.32.32,0,0,1-.24.39L35.34,7.86l1.3,6.69.9,0-.15-1.15h0L43,12.08a.32.32,0,1,1,.14.63l-5,1.14.17,1.26-1.63.09a.32.32,0,0,1-.24.13l-1,.07.51,3.74,7.81,4.42a.32.32,0,1,1-.32.56L38.56,21.4l-2.94,5.32,8,4.25a.52.52,0,1,1-.49.92l-8-4.25-1.68,3,7.84,4.2a.32.32,0,1,1-.3.57l-7.85-4.21-2.55,4.61,7.53,3.93a.32.32,0,1,1-.3.57l-7.54-3.93-1.77,3.21,6.58,3.6a.52.52,0,1,1-.5.92L28,40.53,26.06,44a.32.32,0,0,1-.56-.31l1.91-3.45-7.32-4-.37,8.08A.52.52,0,0,1,19.2,44.8Zm12-45.53L31-.71a.44.44,0,0,0-.26.21L23.61,12.95l-2.83,8.25-1.22,5.52-.8,17.54a.44.44,0,0,0,.88,0l.38-8.2,7.51,4.1-2,3.53a.24.24,0,1,0,.42.23l2-3.53,6.66,3.64a.44.44,0,0,0,.42-.78l-6.65-3.64,1.85-3.35,0,0,7.58,4,.11,0a.24.24,0,0,0,.11-.45l-7.6-4,2.63-4.75L41,35.37l.11,0a.24.24,0,0,0,.11-.45l-7.91-4.24,1.76-3.18,0,0,8,4.27a.44.44,0,1,0,.41-.78L35.5,26.75l3-5.46L43.41,24a.24.24,0,0,0,.24-.42L35.8,19.19v0l-.52-3.85,1.12-.08a.24.24,0,0,0,.19-.11v0L38.18,15,38,13.79l5.08-1.16a.24.24,0,1,0-.11-.47l-5.51,1.25.16,1.16-1.06.06L35.25,7.8l8.63-2.1a.24.24,0,0,0,.18-.29h0a.24.24,0,0,0-.29-.18l-8.61,2.1v0L33.93,1l4.4-.61A.24.24,0,0,0,38.27,0L33.36.63l2.75,14.15-5.05.34a.24.24,0,0,0,0,.48l3.7-.25.56,4.14,2.75,1.56-3,5.47,0,0-6.82-3.62,2.51-4.59a.24.24,0,1,0-.42-.23l-2.51,4.6-5.57-3,2.2-6.4L31.55-.08a.44.44,0,0,0-.18-.6A.44.44,0,0,0,31.16-.73ZM27.95,39.42l-6.74-3.68L23,32.52l6.83,3.56Zm-6.63-3.71,6.6,3.6,1.77-3.2L23,32.63Zm8.71,0,0,0L23.2,32.1l2.64-4.85,0,0,6.78,3.63Zm-6.72-3.59L30,35.55l2.55-4.62-6.67-3.58Zm-2.52,3.44-.73-.4.38-8.28,1.19-5.39.3-.89,1.1.59L21.43,24a.24.24,0,1,0,.42.23l1.61-2.88,3.91,2.08L25.65,26.6l-3.53-1.89a.24.24,0,1,0-.23.42L25.42,27l-2.65,4.85L21.11,31a.24.24,0,1,0-.22.43l1.65.86Zm-.65-.44.61.34,1.67-3.07-1.57-.82a.32.32,0,1,1,.3-.57l1.59.83,2.57-4.71-3.45-1.85a.32.32,0,1,1,.3-.57l3.46,1.85,1.65-3-3.77-2-1.57,2.81a.32.32,0,0,1-.56-.31l1.56-2.8-.95-.5-.27.79-1.19,5.39Zm12.75-4.58-6.82-3.65,1.73-3.17,6.85,3.64ZM26.18,26.8l6.68,3.58,1.68-3-6.71-3.56Z"/>
    <path class="nostra-cls-8" d="M20.59,45c-1.37-6.4-6-14.15-13.45-22.41A116.71,116.71,0,0,0-3.92,11.82l1.43-1.73A119.05,119.05,0,0,1,8.78,21a84.45,84.45,0,0,1,8.51,11,39.06,39.06,0,0,1,5.5,12.46Z"/>
    <path class="nostra-cls-9" d="M20.46,45.18l0-.16c-1.36-6.37-6-14.1-13.42-22.34A116.52,116.52,0,0,0-4,11.94l-.12-.1,1.63-2,.12.1a119.41,119.41,0,0,1,11.29,11,84.61,84.61,0,0,1,8.52,11,39.21,39.21,0,0,1,5.52,12.51l0,.16ZM-3.7,11.8A118.23,118.23,0,0,1,7.25,22.47c7.39,8.22,12,15.93,13.46,22.33l1.88-.4a39.15,39.15,0,0,0-5.44-12.25,84.29,84.29,0,0,0-8.49-11A120.38,120.38,0,0,0-2.47,10.31Z"/>
    <rect class="nostra-cls-4" x="4.51" y="23.07" width="1.09" height="2.27" transform="matrix(0.51, -0.86, 0.86, 0.51, -18.31, 16.1)"/>
    <rect class="nostra-cls-4" x="3.56" y="24.65" width="1.09" height="2.27" transform="translate(-20.12 16.05) rotate(-59.07)"/>
    <rect class="nostra-cls-4" x="7.75" y="25.01" width="1.09" height="2.27" transform="translate(-18.4 19.82) rotate(-59.07)"/>
    <rect class="nostra-cls-4" x="6.8" y="26.59" width="1.09" height="2.27" transform="translate(-20.22 19.77) rotate(-59.07)"/>
    <rect class="nostra-cls-4" x="6.12" y="24.72" width="1.09" height="0.9" transform="translate(-18.35 17.94) rotate(-59.07)"/>
    <rect class="nostra-cls-4" x="4.39" y="27.69" width="1.09" height="0.9" transform="translate(-21.74 17.91) rotate(-59.07)"/>
    <rect class="nostra-cls-4" x="-0.47" y="26.92" width="1.09" height="2.27" transform="matrix(0.51, -0.86, 0.86, 0.51, -24.03, 13.7)"/>
    <rect class="nostra-cls-4" x="-1.42" y="28.51" width="1.09" height="2.27" transform="translate(-25.85 13.65) rotate(-59.07)"/>
    <rect class="nostra-cls-4" x="2.77" y="28.87" width="1.09" height="2.27" transform="translate(-24.12 17.42) rotate(-59.07)"/>
    <rect class="nostra-cls-4" x="1.82" y="30.45" width="1.09" height="2.27" transform="translate(-25.94 17.38) rotate(-59.07)"/>
    <rect class="nostra-cls-4" x="1.14" y="28.57" width="1.09" height="0.9" transform="translate(-24.08 15.55) rotate(-59.07)"/>
    <rect class="nostra-cls-4" x="-0.59" y="31.55" width="1.09" height="0.9" transform="translate(-27.47 15.51) rotate(-59.07)"/>
    <rect class="nostra-cls-4" x="0.01" y="33.83" width="1.09" height="2.27" transform="translate(-29.72 17.47) rotate(-59.07)"/>
    <rect class="nostra-cls-4" x="-0.94" y="35.41" width="1.09" height="2.27" transform="translate(-31.54 17.42) rotate(-59.07)"/>
    <rect class="nostra-cls-4" x="3.25" y="35.77" width="1.09" height="2.27" transform="translate(-29.81 21.19) rotate(-59.07)"/>
    <rect class="nostra-cls-4" x="2.3" y="37.35" width="1.09" height="2.27" transform="translate(-31.63 21.14) rotate(-59.07)"/>
    <rect class="nostra-cls-4" x="1.52" y="38.74" width="1.09" height="2.27" transform="translate(-33.2 21.15) rotate(-59.07)"/>
    <rect class="nostra-cls-4" x="-0.11" y="38.45" width="1.09" height="0.9" transform="translate(-33.16 19.28) rotate(-59.07)"/>
    <path class="nostra-cls-9" d="M21.44,45.68C20.62,38.23,13.68,29,8,22.52A150.88,150.88,0,0,0-4.22,10.16l.11-.12A151.05,151.05,0,0,1,8.14,22.41,88.83,88.83,0,0,1,16.9,34c2.75,4.45,4.34,8.38,4.7,11.69Z"/>
    <path class="nostra-cls-4" d="M8.17,43l2.57-6,3.32-4.39s3.16,5.46,3.16,5.62-.37,4.6-.37,4.6"/>
    <rect class="nostra-cls-4" x="38.52" y="23.67" width="3.11" height="1.09" transform="translate(16.42 -16.2) rotate(28.52)"/>
    <rect class="nostra-cls-4" x="37.64" y="25.29" width="3.11" height="1.09" transform="translate(17.09 -15.58) rotate(28.52)"/>
    <rect class="nostra-cls-4" x="41.36" y="29.27" width="3.11" height="1.09" transform="translate(19.44 -16.87) rotate(28.52)"/>
    <rect class="nostra-cls-4" x="41.72" y="24.9" width="1.23" height="1.09" transform="translate(17.28 -17.12) rotate(28.52)"/>
    <rect class="nostra-cls-4" x="40.01" y="28.03" width="1.23" height="1.09" transform="translate(18.57 -15.93) rotate(28.52)"/>
    <rect class="nostra-cls-4" x="33.35" y="32.65" width="1.94" height="1.09" transform="translate(20.01 -12.36) rotate(28.52)"/>
    <rect class="nostra-cls-4" x="32.47" y="34.27" width="1.94" height="1.09" transform="translate(20.68 -11.74) rotate(28.52)"/>
    <rect class="nostra-cls-4" x="36.18" y="34.19" width="1.94" height="1.09" transform="translate(21.09 -13.52) rotate(28.52)"/>
    <rect class="nostra-cls-4" x="34.48" y="37.33" width="1.94" height="1.09" transform="translate(22.38 -12.33) rotate(28.52)"/>
    <rect class="nostra-cls-4" x="35.34" y="33.42" width="0.77" height="1.09" transform="translate(20.55 -12.94) rotate(28.52)"/>
    <rect class="nostra-cls-4" x="34.46" y="35.04" width="0.77" height="1.09" transform="translate(21.21 -12.32) rotate(28.52)"/>
    <rect class="nostra-cls-4" x="38.33" y="35.33" width="1.94" height="1.09" transform="translate(21.89 -14.41) rotate(28.52)"/>
    <rect class="nostra-cls-4" x="37.45" y="36.95" width="1.94" height="1.09" transform="translate(22.56 -13.79) rotate(28.52)"/>
    <rect class="nostra-cls-4" x="36.62" y="38.47" width="1.94" height="1.09" transform="translate(23.18 -13.22) rotate(28.52)"/>
    <rect class="nostra-cls-4" x="41.16" y="36.87" width="1.94" height="1.09" transform="translate(22.97 -15.58) rotate(28.52)"/>
    <rect class="nostra-cls-4" x="40.28" y="38.49" width="1.94" height="1.09" transform="translate(23.64 -14.96) rotate(28.52)"/>
    <rect class="nostra-cls-4" x="39.46" y="40.01" width="1.94" height="1.09" transform="translate(24.26 -14.38) rotate(28.52)"/>
    <rect class="nostra-cls-4" x="40.32" y="36.09" width="0.77" height="1.09" transform="translate(22.43 -14.99) rotate(28.52)"/>
    <rect class="nostra-cls-4" x="38.62" y="39.23" width="0.77" height="1.09" transform="translate(23.72 -13.79) rotate(28.52)"/>
    <rect class="nostra-cls-4" x="35.21" y="29.24" width="3.11" height="1.09" transform="translate(18.68 -13.94) rotate(28.52)"/>
    <rect class="nostra-cls-4" x="34.33" y="30.86" width="3.11" height="1.09" transform="translate(19.34 -13.32) rotate(28.52)"/>
    <rect class="nostra-cls-4" x="39.75" y="31.71" width="3.11" height="1.09" transform="translate(20.41 -15.8) rotate(28.52)"/>
    <rect class="nostra-cls-4" x="38.87" y="33.33" width="3.11" height="1.09" transform="translate(21.07 -15.19) rotate(28.52)"/>
    <rect class="nostra-cls-4" x="38.4" y="30.46" width="1.23" height="1.09" transform="matrix(0.88, 0.48, -0.48, 0.88, 19.54, -14.86)"/>
    <rect class="nostra-cls-4" x="37.52" y="32.08" width="1.23" height="1.09" transform="translate(20.2 -14.25) rotate(28.52)"/>
    <rect class="nostra-cls-4" x="36.25" y="8.16" width="2.27" height="1.09" transform="translate(-0.99 7.96) rotate(-12)"/>
    <rect class="nostra-cls-4" x="36.63" y="9.97" width="2.27" height="1.09" transform="translate(-1.36 8.08) rotate(-12)"/>
    <rect class="nostra-cls-4" x="39.94" y="7.38" width="2.27" height="1.09" transform="translate(-0.75 8.71) rotate(-12)"/>
    <rect class="nostra-cls-4" x="40.33" y="9.18" width="2.27" height="1.09" transform="translate(-1.12 8.83) rotate(-12)"/>
    <rect class="nostra-cls-4" x="38.77" y="7.77" width="0.9" height="1.09" transform="translate(-0.87 8.34) rotate(-12)"/>
    <rect class="nostra-cls-4" x="39.15" y="9.58" width="0.9" height="1.09" transform="translate(-1.24 8.46) rotate(-12)"/>
    <rect class="nostra-cls-4" x="37.01" y="11.52" width="2.27" height="1.09" transform="translate(-1.67 8.2) rotate(-12)"/>
    <rect class="nostra-cls-4" x="40.7" y="10.73" width="2.27" height="1.09" transform="translate(-1.43 8.95) rotate(-12)"/>
    <rect class="nostra-cls-4" x="39.53" y="11.13" width="0.9" height="1.09" transform="translate(-1.55 8.57) rotate(-12)"/>
    <rect class="nostra-cls-4" x="35.83" y="5.68" width="2.27" height="1.09" transform="translate(-0.49 7.82) rotate(-12)"/>
    <rect class="nostra-cls-4" x="39.53" y="4.9" width="2.27" height="1.09" transform="translate(-0.24 8.57) rotate(-12)"/>
    <rect class="nostra-cls-4" x="38.35" y="5.29" width="0.9" height="1.09" transform="translate(-0.37 8.2) rotate(-12)"/>
    <rect class="nostra-cls-4" x="27.91" y="8.22" width="2.52" height="1.09" transform="translate(7.72 -12.86) rotate(28.52)"/>
    <rect class="nostra-cls-4" x="27.03" y="9.84" width="2.52" height="1.09" transform="translate(8.39 -12.24) rotate(28.52)"/>
    <rect class="nostra-cls-4" x="31.64" y="10.02" width="1.69" height="1.09" transform="translate(8.99 -14.23) rotate(28.52)"/>
    <rect class="nostra-cls-4" x="30.25" y="7.55" width="2.52" height="1.09" transform="translate(7.68 -14.06) rotate(28.52)"/>
    <rect class="nostra-cls-4" x="30.71" y="11.84" width="2.52" height="1.09" transform="translate(9.79 -13.76) rotate(28.52)"/>
    <rect class="nostra-cls-4" x="30.5" y="9.21" width="1" height="1.09" transform="translate(8.42 -13.61) rotate(28.52)"/>
    <rect class="nostra-cls-4" x="27.47" y="11.99" width="2.52" height="1.09" transform="translate(9.47 -12.19) rotate(28.52)"/>
    <rect class="nostra-cls-4" x="30.04" y="12.95" width="1.62" height="1.09" transform="translate(10.19 -13.09) rotate(28.52)"/>
    <rect class="nostra-cls-4" x="24.84" y="14.5" width="2.52" height="1.09" transform="translate(10.35 -10.64) rotate(28.52)"/>
    <rect class="nostra-cls-4" x="26.59" y="13.61" width="2.52" height="1.09" transform="translate(10.13 -11.58) rotate(28.52)"/>
    <rect class="nostra-cls-4" x="26.38" y="10.98" width="1" height="1.09" transform="translate(8.76 -11.43) rotate(28.52)"/>
    <rect class="nostra-cls-4" x="28.73" y="6.65" width="1" height="1.09" transform="translate(6.98 -13.08) rotate(28.52)"/>
    <rect class="nostra-cls-4" x="29.62" y="10.83" width="1" height="1.09" transform="translate(9.09 -13) rotate(28.52)"/>
    <rect class="nostra-cls-4" x="13.46" y="-0.11" width="3.11" height="1.09" transform="translate(1.19 -5.45) rotate(21.4)"/>
    <rect class="nostra-cls-4" x="18.94" y="0.05" width="3.11" height="1.09" transform="translate(1.63 -7.44) rotate(21.4)"/>
    <rect class="nostra-cls-4" x="18.27" y="1.77" width="3.11" height="1.09" transform="translate(2.21 -7.07) rotate(21.4)"/>
    <rect class="nostra-cls-4" x="17.46" y="-0.9" width="1.23" height="1.09" transform="translate(1.12 -6.62) rotate(21.4)"/>
    <rect class="nostra-cls-4" x="16.79" y="0.82" width="1.23" height="1.09" transform="translate(1.7 -6.26) rotate(21.4)"/>
    <rect class="nostra-cls-4" x="12.65" y="1.5" width="3.11" height="1.09" transform="translate(1.73 -5.04) rotate(21.4)"/>
    <rect class="nostra-cls-4" x="11.97" y="3.22" width="3.11" height="1.09" transform="translate(2.31 -4.68) rotate(21.4)"/>
    <rect class="nostra-cls-4" x="17.46" y="3.39" width="3.11" height="1.09" transform="translate(2.74 -6.67) rotate(21.4)"/>
    <rect class="nostra-cls-4" x="16.78" y="5.1" width="3.11" height="1.09" transform="translate(3.32 -6.3) rotate(21.4)"/>
    <rect class="nostra-cls-4" x="15.97" y="2.44" width="1.23" height="1.09" transform="translate(2.23 -5.85) rotate(21.4)"/>
    <rect class="nostra-cls-4" x="15.3" y="4.15" width="1.23" height="1.09" transform="translate(2.81 -5.48) rotate(21.4)"/>
    <rect class="nostra-cls-4" x="12.88" y="5.31" width="3.11" height="1.09" transform="translate(3.13 -4.86) rotate(21.4)"/>
    <rect class="nostra-cls-4" x="11.4" y="4.36" width="1.23" height="1.09" transform="translate(2.62 -4.04) rotate(21.4)"/>
    <rect class="nostra-cls-4" x="10.72" y="6.08" width="1.23" height="1.09" transform="matrix(0.93, 0.36, -0.36, 0.93, 3.2, -3.68)"/>
    <rect class="nostra-cls-4" x="27.87" y="25.38" width="3.11" height="1.09" transform="translate(15.95 -10.9) rotate(28.52)"/>
    <rect class="nostra-cls-4" x="26.99" y="27" width="3.11" height="1.09" transform="translate(16.62 -10.29) rotate(28.52)"/>
    <rect class="nostra-cls-4" x="32.52" y="27.44" width="1.39" height="1.09" transform="translate(17.39 -12.46) rotate(28.52)"/>
    <rect class="nostra-cls-4" x="31.64" y="29.06" width="1.39" height="1.09" transform="translate(18.06 -11.84) rotate(28.52)"/>
    <rect class="nostra-cls-4" x="30.19" y="28.23" width="1.23" height="1.09" transform="translate(17.47 -11.21) rotate(28.52)"/>
    <rect class="nostra-cls-4" x="25.2" y="29.83" width="3.11" height="1.09" transform="translate(17.74 -9.09) rotate(28.52)"/>
    <rect class="nostra-cls-4" x="24.32" y="31.45" width="3.11" height="1.09" transform="translate(18.41 -8.47) rotate(28.52)"/>
    <rect class="nostra-cls-4" x="29.84" y="31.89" width="1.39" height="1.09" transform="translate(19.19 -10.64) rotate(28.52)"/>
    <rect class="nostra-cls-4" x="28.96" y="33.51" width="1.39" height="1.09" transform="translate(19.85 -10.03) rotate(28.52)"/>
    <rect class="nostra-cls-4" x="28.39" y="31.05" width="1.23" height="1.09" transform="matrix(0.88, 0.48, -0.48, 0.88, 18.6, -10.01)"/>
    <rect class="nostra-cls-4" x="30.98" y="19.54" width="2.39" height="1.09" transform="translate(13.49 -12.92) rotate(28.52)"/>
    <rect class="nostra-cls-4" x="30.1" y="21.16" width="2.39" height="1.09" transform="translate(14.16 -12.31) rotate(28.52)"/>
    <rect class="nostra-cls-4" x="29.27" y="22.67" width="2.39" height="1.09" transform="translate(14.78 -11.73) rotate(28.52)"/>
    <rect class="nostra-cls-4" x="34.47" y="21.44" width="2.39" height="1.09" transform="translate(14.82 -14.36) rotate(28.52)"/>
    <rect class="nostra-cls-4" x="33.59" y="23.06" width="2.39" height="1.09" transform="translate(15.49 -13.75) rotate(28.52)"/>
    <rect class="nostra-cls-4" x="32.77" y="24.57" width="2.39" height="1.09" transform="translate(16.11 -13.17) rotate(28.52)"/>
    <rect class="nostra-cls-4" x="33.44" y="20.48" width="0.95" height="1.09" transform="translate(14.15 -13.64) rotate(28.52)"/>
    <rect class="nostra-cls-4" x="31.73" y="23.62" width="0.95" height="1.09" transform="translate(15.44 -12.44) rotate(28.52)"/>
  </g>
  <path class="nostra-cls-6" d="M21,1A20,20,0,1,1,1,21,20,20,0,0,1,21,1m0-1A21,21,0,1,0,42,21,21,21,0,0,0,21,0Z"/>
</svg>