<svg id="Layer_1" data-name="Layer 1" xmlns="http://www.w3.org/2000/svg" viewBox="0 0 32 32">
    <path class="cls-1" d="M6.8,20.12A2.24,2.24,0,1,0,9,22.36,2.24,2.24,0,0,0,6.8,20.12Zm0,3.36a1.12,1.12,0,1,1,1.12-1.12A1.12,1.12,0,0,1,6.8,23.48Z"/>
    <path class="cls-1" d="M15.3,18.47H13.12A1.16,1.16,0,0,1,12,17.32V7.21a1.86,1.86,0,0,1,1.89-1.83h5.71V7H13.84c-.15,0-.27.09-.27.2v9.63H15.3Z"/>
    <path class="cls-1" d="M24.82,17a.53.53,0,0,0-.41-.17H23.26a.54.54,0,0,0-.41.17.53.53,0,0,0-.07.62l.62.93-.29,2,.56.64a.18.18,0,0,0,.33,0l.56-.64-.28-2,.61-.93A.53.53,0,0,0,24.82,17Z"/>
    <path class="cls-1" d="M23.84,15.67a4.49,4.49,0,1,0-4.5-4.49A4.49,4.49,0,0,0,23.84,15.67Z"/>
    <path class="cls-1" d="M31.29,20.62c-.18-1.08-.43-2.68-1.37-3.36a8.08,8.08,0,0,0-1.87-.79,6.79,6.79,0,0,1-.83-.37l0,0-2.68,6.55a.78.78,0,0,1-1.28,0l-2.68-6.55c-.25.12-.51.24-.77.34a7.73,7.73,0,0,0-1.87.79c-.95.7-1.19,2.28-1.37,3.36a19.83,19.83,0,0,0-.3,2.67c0,.71.32.83.89,1a16.32,16.32,0,0,0,2.25.62,22.21,22.21,0,0,0,4.45.56,22.31,22.31,0,0,0,4.46-.56,16.32,16.32,0,0,0,2.25-.62c.58-.22.89-.3.89-1A19.91,19.91,0,0,0,31.29,20.62Z"/>
    <path class="cls-1" d="M15,20.12H11V9.81a.72.72,0,0,0-.72-.72H6.9a2.88,2.88,0,0,0-2.39,1.27L2.32,13.61a2.86,2.86,0,0,0-.49,1.61v4.9H1a.36.36,0,0,0-.36.36v1.09a.36.36,0,0,0,.36.36H3.87a3,3,0,0,1,5.86,0h5C14.77,21.31,14.85,20.71,15,20.12ZM9.39,13.9a.36.36,0,0,1-.36.36H4.54a.36.36,0,0,1-.29-.57L6,11.2A.36.36,0,0,1,6.29,11H9a.36.36,0,0,1,.36.36Z"/>
</svg>