<svg xmlns="http://www.w3.org/2000/svg" xmlns:xlink="http://www.w3.org/1999/xlink" width="32" height="32" viewBox="0 0 32 32">
  <defs>
  </defs>
  
      <path id="Path_64" data-name="Path 64" class="cls-1" d="M1099.229,261.625a26.293,26.293,0,0,0,.84-5.521.912.912,0,1,0-1.822-.015,14.813,14.813,0,0,1-.959,5.7l-.006.017a3.455,3.455,0,0,0-1.918,1.923l-.364.138a14.826,14.826,0,0,1-10.863-.127,3.447,3.447,0,0,0-2.566-2.122l-.068-.18a14.821,14.821,0,0,1,.053-10.68,3.445,3.445,0,0,0,2.687-2.436,14.817,14.817,0,0,1,6.006-.9,1.075,1.075,0,0,0-.851-1.815,25.5,25.5,0,0,0-5.154.834,3.437,3.437,0,1,0-4.537,4.148,16.593,16.593,0,0,0,.016,11.2,3.437,3.437,0,1,0,4.578,3.932,16.5,16.5,0,0,0,10.891-.015,3.439,3.439,0,1,0,4.037-4.077Zm-18.29-15.89a1.644,1.644,0,1,1-1.644,1.644A1.646,1.646,0,0,1,1080.939,245.735Zm0,20.906a1.644,1.644,0,1,1,1.644-1.644A1.646,1.646,0,0,1,1080.939,266.641Zm17.618,0A1.644,1.644,0,1,1,1100.2,265,1.646,1.646,0,0,1,1098.557,266.641Z" transform="translate(-1077.5 -243.674)" fill="#f6f6f5"/>
      <path id="Path_65" data-name="Path 65" class="cls-1" d="M1098.427,254.556c.123,1.48.147,3.108.163,4.784a.841.841,0,0,0,.831.832c1.662.015,3.28.038,4.787.163l.067,0a.838.838,0,0,0,.593-.246l10.448-10.449a.831.831,0,0,0,.2-.852,8.644,8.644,0,0,0-5.55-5.55.835.835,0,0,0-.852.2l-10.449,10.449A.839.839,0,0,0,1098.427,254.556Zm11.5-9.547a6.971,6.971,0,0,1,3.825,3.826l-.594.594-3.825-3.825Zm-1.314,1.314,3.826,3.825-7.922,7.922a7.544,7.544,0,0,0-3.826-3.825Zm-4.971,12.291c-1.13-.071-2.285-.1-3.383-.111-.013-1.052-.04-2.241-.112-3.383A6.52,6.52,0,0,1,1103.641,258.614Z" transform="translate(-1090.913 -243.2)" fill="#f6f6f5"/>
</svg>
